Wavelength,NK-2018-05-28-x505,NK-2018-05-28-x506,NK-2018-05-28-x507,NK-2018-05-28-x508,NK-2018-05-28-x509,NK-2018-05-28-x510,NK-2018-05-28-x511,NK-2018-05-28-x512,NK-2018-05-28-x513,NK-2018-05-28-x514,NK-2018-05-28-x515,NK-2018-05-28-x516,NK-2018-05-28-x517,NK-2018-05-28-x518,NK-2018-05-28-x519,NK-2018-05-28-x520,NK-2018-05-28-x521,NK-2018-05-28-x522,NK-2018-05-28-x523,NK-2018-05-28-x525,NK-2018-05-28-x524
250,0.604,0.615,0.529,0.557,0.5830000000000001,0.53,0.507,0.471,0.4660000000000001,0.43900000000000006,0.42700000000000005,0.42100000000000004,0.401,0.374,0.381,0.351,0.33599999999999997,0.30500000000000005,0.30500000000000005,0.276,0.30000000000000004
251,0.625,0.635,0.547,0.5770000000000001,0.603,0.548,0.525,0.488,0.482,0.45600000000000007,0.44600000000000006,0.43700000000000006,0.41500000000000004,0.391,0.393,0.364,0.35,0.31599999999999995,0.31799999999999995,0.28900000000000003,0.31699999999999995
252,0.641,0.652,0.5640000000000001,0.5920000000000001,0.622,0.5640000000000001,0.541,0.505,0.498,0.4690000000000001,0.4590000000000001,0.45000000000000007,0.43300000000000005,0.401,0.40700000000000003,0.376,0.361,0.32899999999999996,0.32899999999999996,0.30000000000000004,0.32899999999999996
253,0.66,0.672,0.5780000000000001,0.61,0.637,0.5810000000000001,0.557,0.516,0.513,0.484,0.4740000000000001,0.4630000000000001,0.44100000000000006,0.41200000000000003,0.41700000000000004,0.387,0.37,0.33699999999999997,0.33899999999999997,0.30600000000000005,0.33899999999999997
254,0.686,0.6990000000000001,0.603,0.632,0.666,0.605,0.5810000000000001,0.538,0.535,0.504,0.494,0.485,0.4600000000000001,0.43600000000000005,0.43800000000000006,0.406,0.391,0.356,0.354,0.32000000000000006,0.354
255,0.7160000000000001,0.729,0.631,0.663,0.6950000000000001,0.63,0.603,0.5640000000000001,0.558,0.528,0.517,0.508,0.487,0.45400000000000007,0.4620000000000001,0.42800000000000005,0.41200000000000003,0.378,0.377,0.345,0.377
256,0.747,0.761,0.659,0.6930000000000001,0.728,0.659,0.635,0.5900000000000001,0.5840000000000001,0.551,0.538,0.531,0.509,0.47600000000000003,0.48199999999999993,0.448,0.43,0.39699999999999996,0.39599999999999996,0.364,0.39699999999999996
257,0.783,0.797,0.6910000000000001,0.7270000000000001,0.764,0.6930000000000001,0.666,0.62,0.615,0.5830000000000001,0.5690000000000001,0.56,0.539,0.503,0.509,0.47500000000000003,0.457,0.416,0.42,0.385,0.42
258,0.805,0.8200000000000001,0.7100000000000001,0.75,0.787,0.7150000000000001,0.687,0.641,0.634,0.6020000000000001,0.5880000000000001,0.5790000000000001,0.554,0.521,0.528,0.49199999999999994,0.47200000000000003,0.434,0.435,0.40099999999999997,0.435
259,0.8200000000000001,0.8350000000000001,0.7230000000000001,0.764,0.802,0.7270000000000001,0.7000000000000001,0.652,0.646,0.612,0.5990000000000001,0.5890000000000001,0.5650000000000001,0.531,0.539,0.501,0.48300000000000004,0.442,0.443,0.411,0.446
260,0.8300000000000001,0.8470000000000001,0.7340000000000001,0.772,0.8130000000000001,0.736,0.7090000000000001,0.661,0.655,0.62,0.6070000000000001,0.5970000000000001,0.5720000000000001,0.536,0.548,0.507,0.48999999999999994,0.45,0.449,0.417,0.452
261,0.8470000000000001,0.8620000000000001,0.748,0.788,0.8290000000000001,0.752,0.7230000000000001,0.674,0.669,0.632,0.621,0.6110000000000001,0.5860000000000001,0.55,0.5660000000000001,0.521,0.49899999999999994,0.464,0.464,0.431,0.464
262,0.8620000000000001,0.876,0.762,0.8,0.8440000000000001,0.768,0.7370000000000001,0.6890000000000001,0.684,0.645,0.633,0.625,0.6050000000000001,0.562,0.5700000000000001,0.534,0.512,0.47000000000000003,0.47400000000000003,0.438,0.47400000000000003
263,0.877,0.893,0.776,0.8200000000000001,0.8580000000000001,0.782,0.754,0.7030000000000001,0.6980000000000001,0.662,0.651,0.641,0.6140000000000001,0.5820000000000001,0.5890000000000001,0.551,0.528,0.48700000000000004,0.48800000000000004,0.452,0.49299999999999994
264,0.89,0.91,0.79,0.8350000000000001,0.879,0.799,0.768,0.7200000000000001,0.7120000000000001,0.677,0.664,0.656,0.631,0.5940000000000001,0.6000000000000001,0.5640000000000001,0.541,0.49899999999999994,0.504,0.46900000000000003,0.509
265,0.8999999999999999,0.919,0.8,0.8440000000000001,0.891,0.8109999999999999,0.78,0.73,0.724,0.688,0.6739999999999999,0.6679999999999999,0.641,0.603,0.617,0.5760000000000001,0.554,0.512,0.52,0.48500000000000004,0.522
266,0.8999999999999999,0.921,0.8009999999999999,0.8460000000000001,0.893,0.8109999999999999,0.7829999999999999,0.7350000000000001,0.7290000000000001,0.692,0.681,0.673,0.6459999999999999,0.607,0.6199999999999999,0.5820000000000001,0.5609999999999999,0.52,0.524,0.48800000000000004,0.528
267,0.901,0.9219999999999999,0.802,0.8480000000000001,0.895,0.8140000000000001,0.784,0.7370000000000001,0.732,0.6950000000000001,0.6839999999999999,0.6759999999999999,0.649,0.613,0.6279999999999999,0.587,0.567,0.5269999999999999,0.5329999999999999,0.49899999999999994,0.536
268,0.895,0.9179999999999999,0.7989999999999999,0.8460000000000001,0.895,0.812,0.784,0.7370000000000001,0.7330000000000001,0.698,0.6859999999999999,0.679,0.6519999999999999,0.6160000000000001,0.6299999999999999,0.5940000000000001,0.575,0.5309999999999999,0.5389999999999999,0.504,0.544
269,0.883,0.9059999999999999,0.79,0.8380000000000001,0.887,0.806,0.7789999999999999,0.734,0.7290000000000001,0.6950000000000001,0.685,0.6799999999999999,0.655,0.617,0.635,0.5960000000000001,0.579,0.538,0.5429999999999999,0.5149999999999999,0.552
270,0.869,0.8919999999999999,0.78,0.8260000000000001,0.8759999999999999,0.796,0.772,0.7270000000000001,0.7230000000000001,0.6910000000000001,0.681,0.677,0.6519999999999999,0.6180000000000001,0.633,0.599,0.5840000000000001,0.544,0.5509999999999999,0.5209999999999999,0.558
271,0.8540000000000001,0.877,0.7669999999999999,0.815,0.8660000000000001,0.786,0.7609999999999999,0.72,0.7170000000000001,0.687,0.6779999999999999,0.673,0.649,0.6180000000000001,0.6319999999999999,0.601,0.5820000000000001,0.546,0.554,0.526,0.565
272,0.8320000000000001,0.857,0.7490000000000001,0.798,0.8480000000000001,0.772,0.748,0.708,0.7050000000000001,0.6739999999999999,0.667,0.6639999999999999,0.6419999999999999,0.6120000000000001,0.627,0.5960000000000001,0.5820000000000001,0.5449999999999999,0.5529999999999999,0.5289999999999999,0.5640000000000001
273,0.8049999999999999,0.8300000000000001,0.728,0.776,0.827,0.752,0.73,0.692,0.6910000000000001,0.6639999999999999,0.657,0.6559999999999999,0.635,0.605,0.6240000000000001,0.595,0.575,0.5429999999999999,0.554,0.5309999999999999,0.5680000000000001
274,0.7749999999999999,0.8,0.704,0.752,0.8029999999999999,0.7310000000000001,0.7110000000000001,0.6759999999999999,0.6759999999999999,0.6519999999999999,0.645,0.645,0.6279999999999999,0.6000000000000001,0.6180000000000001,0.5920000000000001,0.5760000000000001,0.5449999999999999,0.56,0.536,0.573
275,0.738,0.7649999999999999,0.6739999999999999,0.7230000000000001,0.774,0.7050000000000001,0.688,0.6559999999999999,0.657,0.6339999999999999,0.631,0.633,0.6140000000000001,0.591,0.609,0.5860000000000001,0.575,0.5409999999999999,0.558,0.542,0.573
276,0.702,0.73,0.6449999999999999,0.693,0.745,0.6789999999999999,0.6629999999999999,0.6359999999999999,0.6379999999999999,0.617,0.617,0.62,0.604,0.581,0.603,0.584,0.574,0.5439999999999999,0.5579999999999999,0.5459999999999999,0.58
277,0.6609999999999999,0.689,0.611,0.6589999999999999,0.711,0.6479999999999999,0.6349999999999999,0.612,0.614,0.596,0.598,0.602,0.589,0.572,0.593,0.575,0.566,0.5389999999999999,0.5559999999999999,0.5499999999999999,0.578
278,0.614,0.6439999999999999,0.571,0.62,0.6719999999999999,0.613,0.603,0.584,0.588,0.574,0.577,0.582,0.573,0.5549999999999999,0.58,0.565,0.5589999999999999,0.5369999999999999,0.5529999999999999,0.5489999999999999,0.582
279,0.565,0.596,0.5329999999999999,0.58,0.6319999999999999,0.577,0.571,0.5549999999999999,0.5589999999999999,0.5479999999999999,0.5559999999999999,0.5619999999999999,0.5549999999999999,0.5439999999999999,0.568,0.5569999999999999,0.5529999999999999,0.5339999999999999,0.5509999999999999,0.5529999999999999,0.58
280,0.5169999999999999,0.5489999999999999,0.49300000000000005,0.5399999999999999,0.591,0.5409999999999999,0.5359999999999999,0.5249999999999999,0.5319999999999999,0.5259999999999999,0.5329999999999999,0.5419999999999999,0.5379999999999999,0.5289999999999999,0.5539999999999999,0.5479999999999999,0.5449999999999999,0.5289999999999999,0.5499999999999999,0.5549999999999999,0.579
281,0.47900000000000004,0.5119999999999999,0.46,0.5069999999999999,0.5589999999999999,0.5119999999999999,0.5089999999999999,0.503,0.5099999999999999,0.504,0.5149999999999999,0.5249999999999999,0.5239999999999999,0.5169999999999999,0.5439999999999999,0.5419999999999999,0.5419999999999999,0.5239999999999999,0.5479999999999999,0.5599999999999999,0.582
282,0.436,0.47100000000000003,0.427,0.47400000000000003,0.5269999999999999,0.48200000000000004,0.48200000000000004,0.47900000000000004,0.48800000000000004,0.48600000000000004,0.49700000000000005,0.511,0.5129999999999999,0.506,0.5349999999999999,0.5349999999999999,0.5379999999999999,0.5249999999999999,0.5489999999999999,0.565,0.586
283,0.388,0.423,0.387,0.435,0.48600000000000004,0.446,0.449,0.45,0.46,0.462,0.47600000000000003,0.49100000000000005,0.49400000000000005,0.49200000000000005,0.5229999999999999,0.5249999999999999,0.5289999999999999,0.5189999999999999,0.5479999999999999,0.567,0.583
284,0.339,0.375,0.34700000000000003,0.393,0.446,0.40900000000000003,0.41500000000000004,0.42,0.432,0.436,0.453,0.47000000000000003,0.47600000000000003,0.47600000000000003,0.5109999999999999,0.5159999999999999,0.5219999999999999,0.5159999999999999,0.5439999999999999,0.57,0.582
285,0.304,0.34,0.316,0.362,0.41500000000000004,0.381,0.39,0.399,0.41000000000000003,0.41700000000000004,0.437,0.454,0.464,0.468,0.501,0.51,0.5179999999999999,0.5129999999999999,0.5439999999999999,0.57,0.584
286,0.269,0.306,0.28800000000000003,0.334,0.387,0.35500000000000004,0.366,0.377,0.391,0.4,0.42,0.439,0.45,0.457,0.49200000000000005,0.503,0.5129999999999999,0.509,0.5399999999999999,0.571,0.582
287,0.23300000000000004,0.271,0.259,0.305,0.35800000000000004,0.329,0.341,0.35700000000000004,0.372,0.383,0.406,0.426,0.439,0.447,0.48300000000000004,0.49800000000000005,0.507,0.507,0.5389999999999999,0.574,0.585
288,0.191,0.22900000000000004,0.22400000000000003,0.27,0.323,0.298,0.312,0.332,0.34700000000000003,0.361,0.386,0.40700000000000003,0.422,0.433,0.47000000000000003,0.48600000000000004,0.502,0.502,0.5359999999999999,0.575,0.586
289,0.15699999999999997,0.196,0.195,0.241,0.29300000000000004,0.27,0.28800000000000003,0.309,0.326,0.342,0.368,0.39,0.40700000000000003,0.42,0.46,0.47800000000000004,0.49300000000000005,0.49700000000000005,0.5309999999999999,0.572,0.581
290,0.132,0.16999999999999998,0.173,0.21800000000000003,0.27,0.25,0.267,0.29300000000000004,0.309,0.326,0.35300000000000004,0.377,0.396,0.41200000000000003,0.449,0.46900000000000003,0.48600000000000004,0.49000000000000005,0.5269999999999999,0.568,0.577
291,0.112,0.15000000000000002,0.15499999999999997,0.2,0.252,0.23299999999999998,0.252,0.279,0.297,0.314,0.342,0.367,0.386,0.4,0.441,0.462,0.47800000000000004,0.48400000000000004,0.5209999999999999,0.565,0.573
292,0.08800000000000001,0.126,0.134,0.18,0.22900000000000004,0.21300000000000002,0.23299999999999998,0.259,0.278,0.297,0.327,0.35100000000000003,0.371,0.386,0.427,0.448,0.466,0.47400000000000003,0.511,0.5569999999999999,0.5619999999999999
293,0.072,0.11,0.12000000000000001,0.16499999999999998,0.21400000000000002,0.2,0.21800000000000003,0.248,0.264,0.28500000000000003,0.314,0.339,0.36,0.376,0.41400000000000003,0.439,0.458,0.467,0.501,0.5479999999999999,0.5539999999999999
294,0.057999999999999996,0.09599999999999999,0.109,0.14900000000000002,0.201,0.185,0.20700000000000002,0.23400000000000004,0.251,0.274,0.303,0.327,0.34800000000000003,0.363,0.402,0.426,0.445,0.454,0.48900000000000005,0.5359999999999999,0.5419999999999999
295,0.046,0.083,0.09499999999999999,0.137,0.184,0.172,0.19,0.22000000000000003,0.237,0.258,0.28600000000000003,0.311,0.332,0.34900000000000003,0.386,0.41100000000000003,0.428,0.438,0.47400000000000003,0.5189999999999999,0.5219999999999999
296,0.03899999999999999,0.073,0.08700000000000001,0.127,0.173,0.16099999999999998,0.18,0.20900000000000002,0.22600000000000003,0.246,0.274,0.299,0.319,0.336,0.373,0.396,0.41300000000000003,0.424,0.456,0.503,0.506
297,0.034,0.068,0.081,0.12000000000000001,0.16499999999999998,0.15500000000000003,0.172,0.201,0.21700000000000003,0.238,0.264,0.28800000000000003,0.308,0.324,0.361,0.386,0.401,0.41200000000000003,0.444,0.48900000000000005,0.49200000000000005
298,0.028999999999999998,0.062,0.075,0.114,0.15600000000000003,0.14400000000000002,0.16299999999999998,0.192,0.20800000000000002,0.22700000000000004,0.253,0.275,0.29400000000000004,0.31,0.34400000000000003,0.368,0.385,0.395,0.426,0.47000000000000003,0.47200000000000003
299,0.025999999999999995,0.056999999999999995,0.07100000000000001,0.108,0.14700000000000002,0.138,0.15500000000000003,0.181,0.197,0.21600000000000003,0.242,0.263,0.28,0.29500000000000004,0.328,0.35100000000000003,0.367,0.377,0.40700000000000003,0.448,0.451
300,0.020000000000000004,0.05,0.063,0.09599999999999999,0.135,0.126,0.14400000000000002,0.16699999999999998,0.183,0.201,0.22600000000000003,0.245,0.26,0.275,0.306,0.328,0.343,0.35200000000000004,0.381,0.42100000000000004,0.423
301,0.016,0.041999999999999996,0.05499999999999999,0.08800000000000001,0.12200000000000001,0.114,0.13,0.15400000000000003,0.16799999999999998,0.184,0.20700000000000002,0.22500000000000003,0.241,0.254,0.28300000000000003,0.303,0.318,0.327,0.35400000000000004,0.39,0.393
302,0.016,0.04100000000000001,0.053000000000000005,0.082,0.116,0.107,0.12300000000000001,0.14500000000000002,0.15600000000000003,0.172,0.194,0.21100000000000002,0.22400000000000003,0.23700000000000004,0.265,0.28400000000000003,0.29800000000000004,0.304,0.329,0.363,0.365
303,0.014000000000000005,0.037000000000000005,0.047,0.075,0.104,0.09799999999999999,0.111,0.131,0.14400000000000002,0.15800000000000003,0.178,0.193,0.20600000000000002,0.21800000000000003,0.242,0.26,0.272,0.279,0.302,0.333,0.335
304,0.011000000000000003,0.032,0.041999999999999996,0.066,0.09400000000000001,0.08700000000000001,0.09999999999999999,0.11900000000000001,0.13,0.14300000000000002,0.16099999999999998,0.175,0.186,0.198,0.22000000000000003,0.23600000000000004,0.248,0.254,0.275,0.304,0.306
305,0.009000000000000001,0.02700000000000001,0.036000000000000004,0.059,0.084,0.077,0.09000000000000001,0.105,0.116,0.127,0.14400000000000002,0.15600000000000003,0.16599999999999998,0.177,0.197,0.21200000000000002,0.22200000000000003,0.22800000000000004,0.246,0.272,0.274
306,0.006000000000000005,0.02500000000000001,0.031,0.052000000000000005,0.07300000000000001,0.068,0.078,0.09300000000000001,0.102,0.113,0.127,0.138,0.14500000000000002,0.15400000000000003,0.173,0.186,0.195,0.201,0.21700000000000003,0.241,0.242
307,0.003999999999999997,0.018999999999999996,0.025,0.043000000000000003,0.06199999999999999,0.056,0.066,0.07799999999999999,0.08499999999999999,0.094,0.10799999999999998,0.11699999999999999,0.122,0.13099999999999998,0.146,0.158,0.16599999999999998,0.16999999999999998,0.184,0.204,0.205
308,0.0010000000000000009,0.014000000000000005,0.019000000000000003,0.034,0.05,0.045,0.053000000000000005,0.063,0.069,0.077,0.08900000000000001,0.09600000000000002,0.102,0.108,0.12100000000000001,0.132,0.138,0.14200000000000002,0.15400000000000003,0.17099999999999999,0.172
309,0.000999999999999994,0.009999999999999995,0.013999999999999999,0.027000000000000003,0.039,0.038,0.04399999999999999,0.052,0.057,0.063,0.07400000000000001,0.07899999999999999,0.08399999999999999,0.089,0.09899999999999998,0.10899999999999999,0.11399999999999999,0.11699999999999999,0.128,0.141,0.143
310,-0.0010000000000000009,0.008,0.010999999999999996,0.023,0.033999999999999996,0.030999999999999993,0.037,0.043000000000000003,0.047999999999999994,0.054,0.063,0.068,0.07100000000000001,0.07599999999999998,0.08499999999999999,0.093,0.098,0.10099999999999998,0.10899999999999999,0.122,0.123
311,-0.003999999999999997,0.0030000000000000027,0.007000000000000006,0.016,0.02500000000000001,0.023000000000000007,0.02700000000000001,0.034,0.038000000000000006,0.04200000000000001,0.05,0.054000000000000006,0.05600000000000001,0.06,0.068,0.076,0.079,0.081,0.08900000000000001,0.09899999999999999,0.09999999999999999
312,-0.0040000000000000036,0.001999999999999995,0.0029999999999999957,0.010999999999999996,0.018999999999999996,0.016999999999999994,0.020999999999999998,0.026000000000000002,0.02899999999999999,0.032999999999999995,0.04,0.042,0.043000000000000003,0.04699999999999999,0.053,0.059000000000000004,0.06199999999999999,0.064,0.07100000000000001,0.07899999999999999,0.07899999999999999
313,-0.0050000000000000044,0.0,0.0010000000000000009,0.008,0.013999999999999999,0.011999999999999997,0.015,0.018999999999999996,0.020999999999999998,0.024,0.029999999999999992,0.031999999999999994,0.032999999999999995,0.034999999999999996,0.04,0.04499999999999999,0.047999999999999994,0.048999999999999995,0.054,0.060000000000000005,0.06099999999999999
314,-0.005999999999999998,-0.0030000000000000027,-0.0010000000000000009,0.003999999999999997,0.009000000000000001,0.008,0.009999999999999995,0.011999999999999997,0.015,0.017,0.022,0.023,0.023,0.025,0.029000000000000005,0.033999999999999996,0.034999999999999996,0.036,0.04,0.04499999999999999,0.04599999999999999
315,-0.006999999999999999,-0.0040000000000000036,-0.0030000000000000027,0.0010000000000000009,0.003999999999999997,0.003999999999999997,0.005999999999999998,0.006999999999999999,0.008,0.009999999999999995,0.015,0.015,0.015,0.017,0.018999999999999996,0.024,0.026000000000000002,0.025,0.028000000000000004,0.031999999999999994,0.032999999999999995
316,-0.006999999999999999,-0.0049999999999999975,-0.0040000000000000036,-0.0010000000000000009,0.0020000000000000018,0.0010000000000000009,0.0029999999999999957,0.003999999999999997,0.0049999999999999975,0.006999999999999999,0.010000000000000002,0.010000000000000002,0.009000000000000001,0.010999999999999996,0.012999999999999998,0.016,0.018000000000000002,0.017,0.019999999999999997,0.023,0.024
317,-0.008,-0.005999999999999998,-0.005999999999999998,-0.0040000000000000036,-0.0010000000000000009,-0.0030000000000000027,-0.0010000000000000009,0.0,0.0010000000000000009,0.0020000000000000018,0.005999999999999998,0.0049999999999999975,0.003999999999999997,0.0049999999999999975,0.005999999999999998,0.009000000000000001,0.010000000000000002,0.010000000000000002,0.011999999999999997,0.013999999999999999,0.013999999999999999
318,-0.008,-0.005999999999999998,-0.006999999999999999,-0.0040000000000000036,-0.0030000000000000027,-0.0030000000000000027,-0.0020000000000000018,-0.0020000000000000018,-0.0010000000000000009,-0.0010000000000000009,0.0029999999999999957,0.0020000000000000018,0.0010000000000000009,0.0020000000000000018,0.0029999999999999957,0.0049999999999999975,0.0049999999999999975,0.005999999999999998,0.006999999999999999,0.009000000000000001,0.010000000000000002
319,-0.006999999999999999,-0.006999999999999999,-0.006999999999999999,-0.003999999999999997,-0.003999999999999997,-0.0049999999999999975,-0.003999999999999997,-0.0030000000000000027,-0.0020000000000000018,-0.0030000000000000027,0.0010000000000000009,0.0,-0.0020000000000000018,-0.0010000000000000009,0.0,0.0030000000000000027,0.0030000000000000027,0.0020000000000000018,0.0030000000000000027,0.005999999999999998,0.0049999999999999975
320,-0.009000000000000001,-0.008,-0.009000000000000001,-0.005999999999999998,-0.005999999999999998,-0.005999999999999998,-0.005999999999999998,-0.005999999999999998,-0.0049999999999999975,-0.005999999999999998,-0.0020000000000000018,-0.0030000000000000027,-0.0049999999999999975,-0.0040000000000000036,-0.0040000000000000036,-0.0020000000000000018,-0.0020000000000000018,-0.0020000000000000018,-0.0020000000000000018,-0.0010000000000000009,0.0010000000000000009
321,-0.008,-0.009000000000000001,-0.009000000000000001,-0.006999999999999999,-0.005999999999999998,-0.006999999999999999,-0.005999999999999998,-0.005999999999999998,-0.005999999999999998,-0.005999999999999998,-0.0030000000000000027,-0.0049999999999999975,-0.006999999999999999,-0.0049999999999999975,-0.0049999999999999975,-0.0030000000000000027,-0.0030000000000000027,-0.003999999999999997,-0.003999999999999997,-0.0020000000000000018,-0.0010000000000000009
322,-0.009000000000000001,-0.008,-0.009000000000000001,-0.008,-0.008,-0.008,-0.005999999999999998,-0.008,-0.006999999999999999,-0.006999999999999999,-0.0049999999999999975,-0.005999999999999998,-0.006999999999999999,-0.006999999999999999,-0.005999999999999998,-0.003999999999999997,-0.0049999999999999975,-0.0049999999999999975,-0.0049999999999999975,-0.0030000000000000027,-0.003999999999999997
323,-0.008,-0.008999999999999998,-0.008,-0.006999999999999999,-0.006999999999999999,-0.008,-0.005999999999999998,-0.005999999999999998,-0.005999999999999998,-0.006999999999999999,-0.003999999999999997,-0.005999999999999998,-0.006999999999999999,-0.005999999999999998,-0.006999999999999999,-0.0049999999999999975,-0.003999999999999997,-0.0049999999999999975,-0.0049999999999999975,-0.003999999999999997,-0.003999999999999997
324,-0.009999999999999998,-0.009999999999999998,-0.009999999999999998,-0.009000000000000001,-0.009000000000000001,-0.009000000000000001,-0.009000000000000001,-0.009000000000000001,-0.008,-0.008,-0.006999999999999999,-0.008,-0.008,-0.009000000000000001,-0.009000000000000001,-0.006999999999999999,-0.005999999999999998,-0.006999999999999999,-0.005999999999999998,-0.005999999999999998,-0.005999999999999998
325,-0.008,-0.008999999999999998,-0.008999999999999998,-0.006999999999999999,-0.006999999999999999,-0.008,-0.008,-0.008,-0.006999999999999999,-0.008,-0.005999999999999998,-0.008,-0.008999999999999998,-0.008,-0.008,-0.005999999999999998,-0.006999999999999999,-0.006999999999999999,-0.005999999999999998,-0.005999999999999998,-0.005999999999999998
326,-0.007999999999999997,-0.007999999999999997,-0.007999999999999997,-0.006999999999999999,-0.006999999999999999,-0.006999999999999999,-0.006999999999999999,-0.006999999999999999,-0.007999999999999997,-0.006999999999999999,-0.003999999999999997,-0.006999999999999999,-0.006999999999999999,-0.006999999999999999,-0.007999999999999997,-0.005999999999999998,-0.0049999999999999975,-0.005999999999999998,-0.005999999999999998,-0.0049999999999999975,-0.0049999999999999975
327,-0.008999999999999998,-0.008999999999999998,-0.008999999999999998,-0.008,-0.008999999999999998,-0.008999999999999998,-0.008,-0.008999999999999998,-0.008,-0.008,-0.005999999999999998,-0.008,-0.009999999999999998,-0.008999999999999998,-0.008999999999999998,-0.006999999999999999,-0.006999999999999999,-0.008999999999999998,-0.008,-0.006999999999999999,-0.006999999999999999
328,-0.007999999999999997,-0.007999999999999997,-0.008999999999999998,-0.006999999999999999,-0.007999999999999997,-0.007999999999999997,-0.006999999999999999,-0.006999999999999999,-0.007999999999999997,-0.007999999999999997,-0.0049999999999999975,-0.006999999999999999,-0.007999999999999997,-0.006999999999999999,-0.007999999999999997,-0.006999999999999999,-0.006999999999999999,-0.006999999999999999,-0.005999999999999998,-0.005999999999999998,-0.0049999999999999975
329,-0.008999999999999998,-0.008999999999999998,-0.008999999999999998,-0.007999999999999997,-0.007999999999999997,-0.007999999999999997,-0.007999999999999997,-0.007999999999999997,-0.008999999999999998,-0.008999999999999998,-0.005999999999999998,-0.007999999999999997,-0.008999999999999998,-0.007999999999999997,-0.008999999999999998,-0.007999999999999997,-0.006999999999999999,-0.007999999999999997,-0.007999999999999997,-0.006999999999999999,-0.007999999999999997
330,-0.007999999999999997,-0.007999999999999997,-0.007999999999999997,-0.007999999999999997,-0.006999999999999996,-0.006999999999999996,-0.006999999999999996,-0.006999999999999996,-0.007999999999999997,-0.006999999999999996,-0.0049999999999999975,-0.006999999999999996,-0.007999999999999997,-0.007999999999999997,-0.007999999999999997,-0.006999999999999996,-0.006999999999999996,-0.006999999999999996,-0.006999999999999996,-0.006999999999999996,-0.005999999999999998
331,-0.007999999999999997,-0.008999999999999998,-0.008999999999999998,-0.006999999999999996,-0.007999999999999997,-0.007999999999999997,-0.008999999999999998,-0.007999999999999997,-0.008999999999999998,-0.007999999999999997,-0.005999999999999998,-0.007999999999999997,-0.008999999999999998,-0.007999999999999997,-0.008999999999999998,-0.006999999999999996,-0.006999999999999996,-0.006999999999999996,-0.006999999999999996,-0.006999999999999996,-0.007999999999999997
332,-0.008999999999999998,-0.009999999999999998,-0.008999999999999998,-0.008999999999999998,-0.008999999999999998,-0.008999999999999998,-0.007999999999999997,-0.008999999999999998,-0.007999999999999997,-0.008999999999999998,-0.006999999999999999,-0.008999999999999998,-0.008999999999999998,-0.007999999999999997,-0.009999999999999998,-0.007999999999999997,-0.007999999999999997,-0.007999999999999997,-0.007999999999999997,-0.007999999999999997,-0.006999999999999999
333,-0.009999999999999998,-0.009999999999999998,-0.009999999999999998,-0.009999999999999998,-0.009999999999999998,-0.009999999999999998,-0.008999999999999998,-0.008999999999999998,-0.008999999999999998,-0.009999999999999998,-0.006999999999999999,-0.008999999999999998,-0.009999999999999998,-0.008999999999999998,-0.009999999999999998,-0.007999999999999997,-0.007999999999999997,-0.008999999999999998,-0.007999999999999997,-0.007999999999999997,-0.007999999999999997
334,-0.007999999999999997,-0.008999999999999998,-0.008999999999999998,-0.007999999999999997,-0.007999999999999997,-0.007999999999999997,-0.007999999999999997,-0.007999999999999997,-0.007999999999999997,-0.008999999999999998,-0.006999999999999996,-0.007999999999999997,-0.009999999999999998,-0.009999999999999998,-0.008999999999999998,-0.007999999999999997,-0.007999999999999997,-0.007999999999999997,-0.007999999999999997,-0.007999999999999997,-0.007999999999999997
335,-0.008000000000000004,-0.008000000000000004,-0.007000000000000003,-0.007000000000000003,-0.007000000000000003,-0.007000000000000003,-0.007000000000000003,-0.006000000000000002,-0.006000000000000002,-0.008000000000000004,-0.0040000000000000036,-0.007000000000000003,-0.009000000000000005,-0.008000000000000004,-0.008000000000000004,-0.007000000000000003,-0.006000000000000002,-0.008000000000000004,-0.007000000000000003,-0.006000000000000002,-0.006000000000000002
336,-0.008000000000000004,-0.008000000000000004,-0.010000000000000002,-0.008000000000000004,-0.008000000000000004,-0.008000000000000004,-0.007000000000000003,-0.008000000000000004,-0.007000000000000003,-0.008000000000000004,-0.006000000000000002,-0.008000000000000004,-0.009000000000000005,-0.009000000000000005,-0.009000000000000005,-0.007000000000000003,-0.007000000000000003,-0.008000000000000004,-0.007000000000000003,-0.007000000000000003,-0.007000000000000003
337,-0.010000000000000002,-0.009000000000000005,-0.008000000000000004,-0.008000000000000004,-0.007000000000000003,-0.008000000000000004,-0.008000000000000004,-0.008000000000000004,-0.008000000000000004,-0.009000000000000005,-0.006000000000000002,-0.008000000000000004,-0.008000000000000004,-0.009000000000000005,-0.008000000000000004,-0.008000000000000004,-0.008000000000000004,-0.008000000000000004,-0.008000000000000004,-0.007000000000000003,-0.007000000000000003
338,-0.009000000000000005,-0.008000000000000004,-0.009000000000000005,-0.008000000000000004,-0.008000000000000004,-0.008000000000000004,-0.008000000000000004,-0.008000000000000004,-0.008000000000000004,-0.008000000000000004,-0.006000000000000002,-0.007000000000000003,-0.009000000000000005,-0.009000000000000005,-0.009000000000000005,-0.007000000000000003,-0.007000000000000003,-0.008000000000000004,-0.008000000000000004,-0.007000000000000003,-0.007000000000000003
339,-0.009000000000000005,-0.009000000000000005,-0.009000000000000005,-0.008000000000000004,-0.008000000000000004,-0.009000000000000005,-0.008000000000000004,-0.009000000000000005,-0.009000000000000005,-0.008000000000000004,-0.007000000000000003,-0.007000000000000003,-0.009000000000000005,-0.009000000000000005,-0.009000000000000005,-0.008000000000000004,-0.007000000000000003,-0.008000000000000004,-0.008000000000000004,-0.008000000000000004,-0.008000000000000004
340,-0.009000000000000005,-0.009000000000000005,-0.009000000000000005,-0.007000000000000003,-0.008000000000000004,-0.008000000000000004,-0.008000000000000004,-0.009000000000000005,-0.007000000000000003,-0.009000000000000005,-0.006000000000000002,-0.008000000000000004,-0.010000000000000002,-0.010000000000000002,-0.010000000000000002,-0.008000000000000004,-0.008000000000000004,-0.009000000000000005,-0.007000000000000003,-0.008000000000000004,-0.008000000000000004
341,-0.008000000000000004,-0.008000000000000004,-0.009000000000000001,-0.007000000000000003,-0.008000000000000004,-0.007000000000000003,-0.007000000000000003,-0.008000000000000004,-0.007000000000000003,-0.009000000000000001,-0.006000000000000002,-0.007000000000000003,-0.008000000000000004,-0.008000000000000004,-0.009000000000000001,-0.008000000000000004,-0.007000000000000003,-0.008000000000000004,-0.007000000000000003,-0.008000000000000004,-0.008000000000000004
342,-0.007000000000000003,-0.008,-0.007000000000000003,-0.006000000000000002,-0.007000000000000003,-0.007000000000000003,-0.006000000000000002,-0.008,-0.008,-0.007000000000000003,-0.004,-0.006000000000000002,-0.008,-0.008,-0.007000000000000003,-0.007000000000000003,-0.006000000000000002,-0.007000000000000003,-0.006000000000000002,-0.007000000000000003,-0.006000000000000002
343,-0.009000000000000005,-0.009000000000000005,-0.011000000000000003,-0.010000000000000002,-0.008000000000000004,-0.008000000000000004,-0.008000000000000004,-0.008000000000000004,-0.009000000000000005,-0.009000000000000005,-0.006000000000000002,-0.008000000000000004,-0.009000000000000005,-0.010000000000000002,-0.010000000000000002,-0.009000000000000005,-0.008000000000000004,-0.009000000000000005,-0.008000000000000004,-0.008000000000000004,-0.008000000000000004
344,-0.008000000000000004,-0.010000000000000002,-0.008000000000000004,-0.008000000000000004,-0.008000000000000004,-0.007000000000000003,-0.007000000000000003,-0.008000000000000004,-0.008000000000000004,-0.008000000000000004,-0.006000000000000002,-0.008000000000000004,-0.009000000000000001,-0.008000000000000004,-0.008000000000000004,-0.007000000000000003,-0.007000000000000003,-0.007000000000000003,-0.008000000000000004,-0.008000000000000004,-0.007000000000000003
345,-0.009000000000000001,-0.009000000000000001,-0.010000000000000002,-0.008000000000000004,-0.009000000000000001,-0.008000000000000004,-0.009000000000000001,-0.009000000000000001,-0.009000000000000001,-0.009000000000000001,-0.005000000000000001,-0.009000000000000001,-0.009000000000000001,-0.009000000000000001,-0.010000000000000002,-0.008000000000000004,-0.008000000000000004,-0.009000000000000001,-0.008000000000000004,-0.008000000000000004,-0.008000000000000004
346,-0.009000000000000001,-0.009000000000000001,-0.009000000000000001,-0.008000000000000004,-0.009000000000000001,-0.008000000000000004,-0.008000000000000004,-0.008000000000000004,-0.008000000000000004,-0.008000000000000004,-0.007000000000000003,-0.009000000000000001,-0.010000000000000002,-0.009000000000000001,-0.009000000000000001,-0.008000000000000004,-0.007000000000000003,-0.008000000000000004,-0.007000000000000003,-0.008000000000000004,-0.008000000000000004
347,-0.009000000000000001,-0.009000000000000001,-0.009000000000000001,-0.008000000000000004,-0.009000000000000001,-0.009000000000000001,-0.008000000000000004,-0.008000000000000004,-0.009000000000000001,-0.008000000000000004,-0.006000000000000002,-0.009000000000000001,-0.009000000000000001,-0.009000000000000001,-0.010000000000000002,-0.008000000000000004,-0.008000000000000004,-0.008000000000000004,-0.008000000000000004,-0.008000000000000004,-0.007000000000000003
348,-0.009000000000000001,-0.008,-0.009000000000000001,-0.007000000000000003,-0.008,-0.007000000000000003,-0.007000000000000003,-0.008,-0.008,-0.008,-0.006000000000000002,-0.009000000000000001,-0.009000000000000001,-0.008,-0.009000000000000001,-0.008,-0.008,-0.008,-0.007000000000000003,-0.008,-0.007000000000000003
349,-0.007000000000000003,-0.007000000000000003,-0.008,-0.007000000000000003,-0.008,-0.008,-0.007000000000000003,-0.008,-0.007000000000000003,-0.008,-0.005000000000000001,-0.007000000000000003,-0.008,-0.008,-0.008,-0.007000000000000003,-0.007000000000000003,-0.009000000000000001,-0.006000000000000002,-0.007000000000000003,-0.007000000000000003
350,-0.009000000000000001,-0.009000000000000001,-0.010000000000000002,-0.009000000000000001,-0.009000000000000001,-0.008000000000000004,-0.008000000000000004,-0.009000000000000001,-0.008000000000000004,-0.009000000000000001,-0.006000000000000002,-0.009000000000000001,-0.010000000000000002,-0.009000000000000001,-0.010000000000000002,-0.008000000000000004,-0.008000000000000004,-0.009000000000000001,-0.009000000000000001,-0.007000000000000003,-0.008000000000000004
